
[
    {
    "slideHeading": "Business solutions for ambitious, fast growing brands.",
    "slideText": "Lorem Ipsum is simply dummy text of the printing and typesetting industry has been the industry's standard dummy text ever since the when an unknown printer took a galley.",
    "slideButtonText": "Know More Us"
    },
    {
    "slideHeading": "Business solutions for branding.",
    "slideText": "Lorem Ipsum is simply dummy text of the printing and typesetting industry has been the industry's standard dummy text ever since the when an unknown printer took a galley.",
    "slideButtonText": "Know More Us"
    },
    {
    "slideHeading": "Business is build on friendship.",
    "slideText": "Lorem Ipsum is simply dummy text of the printing and typesetting industry has been the industry's standard dummy text ever since the when an unknown printer took a galley.",
    "slideButtonText": "Know More Us"
    },
    {
    "slideHeading": "Business is build on friendship.",
    "slideText": "Lorem Ipsum is simply dummy text of the printing and typesetting industry has been the industry's standard dummy text ever since the when an unknown printer took a galley.",
    "slideButtonText": "Know More Us"
    }
]